Introdução a R para Visualização e Apresentação de Dados
…
# mostrar datas onde houve os maiores valores de despesa com folha de pagamento
df_despesas %>% 
  filter(NOME_FAVORECIDO == "FOLHA PAGTO.PESSOAL") %>% 
  select(DATA_REGISTRO, VALOR_PAGO) %>% 
  arrange(desc(VALOR_PAGO))

## # A tibble: 10,285 x 2
##    DATA_REGISTRO VALOR_PAGO
##    <date>             <dbl>
##  1 2017-06-30     36199947.
##  2 2017-07-31     36197178.
##  3 2017-05-31     35974835.
##  4 2017-01-31     35902479.
##  5 2017-09-30     35538295.
##  6 2017-12-15     35507190.
##  7 2017-08-30     35505462.
##  8 2017-02-28     35393811.
##  9 2017-10-31     35249901.
## 10 2017-03-31     35149377.
## # ... with 10,275 more rows

# classificar dados pelo NOME_FAVORECIDO, mostrando os maiores valores pagos para cada
df_despesas %>% 
  select(DATA_REGISTRO, NOME_FAVORECIDO, VALOR_PAGO) %>% 
  arrange(NOME_FAVORECIDO, desc(VALOR_PAGO))

## # A tibble: 192,638 x 3
##    DATA_REGISTRO NOME_FAVORECIDO                             VALOR_PAGO
##    <date>        <chr>                                            <dbl>
##  1 2017-07-26    13  SUPERINTENDENCIA REGIONAL DE POL. ROD.        766.
##  2 2017-09-19    13  SUPERINTENDENCIA REGIONAL DE POL. ROD.        156.
##  3 2017-07-26    13  SUPERINTENDENCIA REGIONAL DE POL. ROD.          0 
##  4 2017-10-20    1 REGISTRO G. DE IMOVEIS E HIPOTECA MACEIO.      8849.
##  5 2017-09-29    1 REGISTRO G. DE IMOVEIS E HIPOTECA MACEIO.         0 
##  6 2017-10-05    1 REGISTRO G. DE IMOVEIS E HIPOTECA MACEIO.         0 
##  7 2017-10-30    3D INFORMATIC SERVICOS LTDA                         0 
##  8 2017-10-30    3D INFORMATIC SERVICOS LTDA                         0 
##  9 2017-04-25    3D INFORMATIC SERVICOS LTDA                         0 
## 10 2017-04-25    3D INFORMATIC SERVICOS LTDA                         0 
## # ... with 192,628 more rows

<div class="alert alert-info" 
Referências: 
 Documentação da função arrange()

1.4.5 group_by() e summarise()

O combo group_by() e summarise() é excelente para agregar e resumir dados. Com group_by(), as funções aplicadas com summarise() ou até mesmo com mutate() ou filter() são aplicadas não em todo o dataset mas sim em cada grupo da variável especificada na função group_by

# calcular o valor medio pago agrupado por DESCRICAO_UG
df_despesas %>% 
  group_by(DESCRICAO_UG) %>% 
  summarise(VALOR_PAGO_MEDIO = mean(VALOR_PAGO))

## # A tibble: 80 x 2
##    DESCRICAO_UG                                  VALOR_PAGO_MEDIO
##    <chr>                                                    <dbl>
##  1 AG DE MODERNIZACAO DA GESTAO DE PROCESSOS               18098.
##  2 AGENC DE DEFESA E INSPECAO AGROPECUARIA DE AL            5041.
##  3 AGENCIA DE FOMENTO DE ALAGOAS                            2382.
##  4 AGENCIA REGULADORA DOS SERV PUB DO EST DE AL             4068.
##  5 ALAGOAS PREVIDENCIA                                     18652.
##  6 ASSEMBLEIA LEGISLATIVA ESTADUAL                        252891.
##  7 CIA DE ADMINIST DE REC HUMANOS E PATRIMONIAIS           24303.
##  8 CONTROLADORIA GERAL DO ESTADO                            6372.
##  9 COORDENADORIA ESTADUAL DE DEFESA CIVIL CEDEC            17926.
## 10 CORPO DE BOMBEIROS MILITAR DO ESTADO DE AL              64719.
## # ... with 70 more rows

# Calcular a soma do valor pago, a quantidade de registros e...
# a quantidade de favorecidos disintos para cada UG.
# classificar pela qtd de favorecidos distintos em ordem decrescente
df_despesas %>% 
  group_by(DESCRICAO_UG) %>% 
  summarise(VALOR_PAGO_TOTAL = sum(VALOR_PAGO),
            QTD_OBSERVACOES = n(),
            QTD_FAVORECIDOS_DIFERENTES = n_distinct(CODIGO_FAVORECIDO)) %>% 
  arrange(desc(QTD_FAVORECIDOS_DIFERENTES))

## # A tibble: 80 x 4
##    DESCRICAO_UG        VALOR_PAGO_TOTAL QTD_OBSERVACOES QTD_FAVORECIDOS_D…
##    <chr>                          <dbl>           <int>              <int>
##  1 SEC DE ESTADO DA S…        88281789.           11586               1850
##  2 SECRETARIA DE ESTA…       688386057.           21800               1530
##  3 UNIVERS ESTADUAL D…       218302840.           23790               1377
##  4 FUNDO ESTADUAL DE …       250232390.            5014                738
##  5 SECRETARIA DE ESTA…       656421639.            5734                681
##  6 POLICIA CIVIL DO E…       263251822.            9275                579
##  7 INSTITUTO DO MEIO …        13245505.            7800                444
##  8 FUN DE AMPARO A PE…        20997494.            2745                441
##  9 TRIBUNAL DE JUSTICA       446800776.            2843                432
## 10 POLICIA MILITAR DO…       641422440.            3105                392
## # ... with 70 more rows
…
# count() é uma alternativa a group_by() + summarise(n())

df_despesas %>% 
  count(CODIGO_FAVORECIDO, NOME_FAVORECIDO) %>% 
  filter(n > 100) %>% 
  arrange(desc(n))

## # A tibble: 125 x 3
##    CODIGO_FAVORECIDO NOME_FAVORECIDO                                 n
##    <chr>             <chr>                                       <int>
##  1 PF0000001         FOLHA PAGTO.PESSOAL                         10285
##  2 29979036000221    INSS - INSTITUTO NACIONAL DO SEGURO SOCIAL   3553
##  3 13353495000184    PROPAG TURISMO LTDA                          2452
##  4 12272084000100    COMPANHIA ENERGETICA DE ALAGOAS - CEAL       1304
##  5 24472748000155    EQUILIBRIO SERVICOS LTDA - ROTACAR LOCADORA  1292
##  6 PF0000002         DIVIDA/AJUS. FISCAL                           991
##  7 33000118001302    TELEMAR NORTE LESTE S.A                       922
##  8 PF0000006         INATIVOS E PENSIONI                           889
##  9 12272084000100    CIA EDE ELETRICA DE ALAGOAS                   883
## 10 05423963000111    OI MOVEL S/A                                  848
## # ... with 115 more rows
…
Para isso, usamos a função gather, que precisa de três argumentos:

O conjunto de colunas que serão transformadas de colunas para linhas;

O nome da variável (coluna) cujos valores serão as colunas transformadas acima;

O nome da variável cujos valores serão os valores correspondentes das colunas transformadas;

Observe o exemplo abaixo:

economics %>% 
  gather(indicador, valor, -date)

## # A tibble: 2,870 x 3
##    date       indicador valor
##    <date>     <chr>     <dbl>
##  1 1967-07-01 pce        507.
##  2 1967-08-01 pce        510.
##  3 1967-09-01 pce        516.
##  4 1967-10-01 pce        513.
##  5 1967-11-01 pce        518.
##  6 1967-12-01 pce        526.
##  7 1968-01-01 pce        532.
##  8 1968-02-01 pce        534.
##  9 1968-03-01 pce        545.
## 10 1968-04-01 pce        545.
## # ... with 2,860 more rows
…
economics_long %>% 
  select(-value01) %>% 
  spread(variable, value, fill = NA)

## # A tibble: 574 x 6
##    date         pce    pop psavert uempmed unemploy
##    <date>     <dbl>  <dbl>   <dbl>   <dbl>    <dbl>
##  1 1967-07-01  507. 198712    12.5     4.5     2944
##  2 1967-08-01  510. 198911    12.5     4.7     2945
##  3 1967-09-01  516. 199113    11.7     4.6     2958
##  4 1967-10-01  513. 199311    12.5     4.9     3143
##  5 1967-11-01  518. 199498    12.5     4.7     3066
##  6 1967-12-01  526. 199657    12.1     4.8     3018
##  7 1968-01-01  532. 199808    11.7     5.1     2878
##  8 1968-02-01  534. 199920    12.2     4.5     3001
##  9 1968-03-01  545. 200056    11.6     4.1     2877
## 10 1968-04-01  545. 200208    12.2     4.6     2709
## # ... with 564 more rows
…
